…
    ## # A tibble: 45 x 3
    ##    name                      cluster diana
    ##    <chr>                     <fct>   <fct>
    ##  1 100%_Bran                 1       1    
    ##  2 100%_Natural_Bran         2       2    
    ##  3 All-Bran                  1       1    
    ##  4 All-Bran_with_Extra_Fiber 1       1    
    ##  5 Apple_Cinnamon_Cheerios   3       3    
    ##  6 Apple_Jacks               3       3    
    ##  7 Cap'n'Crunch              3       3    
    ##  8 Cinnamon_Toast_Crunch     3       3    
    ##  9 Cocoa_Puffs               3       3    
    ## 10 Corn_Chex                 5       5    
    ## # … with 35 more rows
…
<!-- -->

    cereal %>%
      filter(cluster == 3) %>%
      select(name, cluster,  healthy_sugar_lvl, healthy_fiber_lvl, high_sodium_lvl)

    ## # A tibble: 22 x 5
    ##    name               cluster healthy_sugar_lvl healthy_fiber_l… high_sodium_lvl
    ##    <chr>              <fct>               <dbl>            <dbl>           <dbl>
    ##  1 Apple_Cinnamon_Ch… 3                       0                0               1
    ##  2 Apple_Jacks        3                       0                0               1
    ##  3 Cap'n'Crunch       3                       0                0               1
    ##  4 Cinnamon_Toast_Cr… 3                       1                0               1
    ##  5 Cocoa_Puffs        3                       0                0               1
    ##  6 Corn_Pops          3                       1                0               1
    ##  7 Count_Chocula      3                       0                0               1
    ##  8 Crispy_Wheat_&_Ra… 3                       0                0               1
    ##  9 Froot_Loops        3                       0                0               1
    ## 10 Frosted_Flakes     3                       0                0               1
    ## # … with 12 more rows
…
